MoleculeType	Identifier	MoleculeName	
Proteins	P13716	UniProt:P13716 ALAD	
Proteins	P08397	UniProt:P08397 HMBS	
Proteins	P22830	UniProt:P22830 FECH	
Proteins	P02768	UniProt:P02768 ALB	
Proteins	Q9UNQ0	UniProt:Q9UNQ0 ABCG2	
Proteins	Q9Y5Y0-2	UniProt:Q9Y5Y0-2 FLVCR1	
Proteins	P06132	UniProt:P06132 UROD	
Proteins	P10746	UniProt:P10746 UROS	
Proteins	Q12887	UniProt:Q12887 COX10	
Proteins	P36551	UniProt:P36551 CPOX	
Proteins	P50336	UniProt:P50336 PPOX	
Proteins	Q7KZN9	UniProt:Q7KZN9 COX15	
Proteins	Q9Y5Y0-1	UniProt:Q9Y5Y0-1 FLVCR1	
Proteins	P22557	UniProt:P22557 ALAS2	
Proteins	P13196	UniProt:P13196 ALAS1	
