GO:0042440	8.467631561921045e-23
GO:0042168	2.315095400914415e-25
GO:0046148	4.36245508173272e-25
GO:0044249	1.2759753750428376e-05
GO:1901566	1.3747827198308461e-09
GO:0006725	0.0001976524513169603
GO:0046483	0.0001687538821985469
GO:0044271	5.232407085851424e-08
GO:0033013	1.6478035316574672e-23
GO:0009058	3.14079716901575e-05
GO:0006778	2.402187332003045e-24
GO:1901576	2.5377120966081364e-05
GO:0006783	6.173041315955882e-28
GO:1901362	5.341402829802815e-09
GO:0019438	1.3589428443925455e-09
GO:1901360	0.0004692109373161607
GO:0018130	1.2380537169037547e-09
GO:0006779	4.78778689274806e-27
GO:0033014	4.78778689274806e-27
GO:0034641	0.0007985779835890689
GO:0006784	5.449965171963274e-31
GO:0046160	5.449965171963274e-31
GO:0048033	1.7826836077793394e-27
GO:0048034	1.7826836077793394e-27
GO:0046501	9.799365001888991e-26
GO:0043233	0.0005538764836479116
GO:0046492	4.497125003607569e-23
GO:0006785	4.497125003607569e-23
GO:0070013	0.0005538764836479116
GO:0006782	4.497125003607569e-23
GO:0031974	0.0005538764836479116
GO:0019866	0.0006083929481669703
GO:0031966	0.004427444775037739
GO:0005743	0.00031470580462824964
GO:0019842	0.0017312732243301558
GO:0046685	0.0007502931340489183
GO:0030170	0.003926885761510462
GO:0070279	0.004147259201274576
GO:0070541	1.5329402172492626e-07
GO:0051597	0.0013878300189745201
GO:0003870	0.00023150934833908606
GO:0016748	0.0006942214570005469
GO:0016749	0.00023150934833908606
GO:0042541	0.003466512679551613
